…
# Filter stations located in my beloved home state ;-)
df_st <- tidy_df_description %>% filter(bundesland == "Sachsen-Anhalt")
df_st

## # A tibble: 53 x 8
##    station_id von_datum bis_datum stationshoehe geo_breite geo_laenge
##         <int>     <chr>     <chr>         <chr>      <dbl>      <dbl>
##  1        184  19470101  19660630            55    52.6769    12.0077
##  2        207  19470101  19641231           105    51.7498    11.4667
##  3        445  18980101  20180129            84    51.8218    11.7109
##  4        524  19470101  19921231            80    51.6333    12.3167
##  5        722  19380101  20180129          1134    51.7986    10.6183
##  6        948  19470101  19501231            60    51.8512    12.2515
##  7       1052  19930501  20180129            80    52.2174    12.1641
##  8       1074  19470401  19730228           103    51.3043    12.0810
##  9       1182  19470101  20010531           146    51.5029    11.5705
## 10       1488  19470101  19721231           523    51.6884    11.0394
## # ... with 43 more rows, and 2 more variables: station_name <chr>,
## #   bundesland <chr>
…
temperature_data_st

## # A tibble: 679,141 x 13
##    STATIONS_ID  station_name MESS_DATUM   RSK   SDK     PM   TMK   UPM
##          <int>         <chr>      <int> <dbl> <dbl>  <dbl> <dbl> <dbl>
##  1        1960 Halle (Stadt)   18510101   0.0    NA 1005.9   7.5    87
##  2        1960 Halle (Stadt)   18510102   0.0    NA 1008.1   6.2    83
##  3        1960 Halle (Stadt)   18510103   0.0    NA 1009.4   4.0    80
##  4        1960 Halle (Stadt)   18510104   0.3    NA 1005.3   4.3    87
##  5        1960 Halle (Stadt)   18510105   0.0    NA  999.6   1.7    94
##  6        1960 Halle (Stadt)   18510106   0.0    NA  994.7   2.3    90
##  7        1960 Halle (Stadt)   18510107   1.4    NA  996.1   1.5    86
##  8        1960 Halle (Stadt)   18510108   5.0    NA  997.4   3.6    95
##  9        1960 Halle (Stadt)   18510109   0.0    NA 1004.4   4.0    92
## 10        1960 Halle (Stadt)   18510110   0.0    NA 1015.8   3.0    89
## # ... with 679,131 more rows, and 5 more variables: TXK <dbl>, TNK <dbl>,
## #   TGK <dbl>, geo_breite <dbl>, geo_laenge <dbl>
…
